{
  "Pokemon": [
    {
      "Numero": "001",
      "Nom": "Bulbizarre",
      "Type1": "Plante",
      "Type2": "Poison",
      "PV": 45,
      "Attaque": 49,
      "Defense": 49,
      "Vitesse": 45,
      "Taille": 0,
      "Poids": 67,
      "Image": "img/001.png",
      "uri": "http://localhost:3000/Pokemon/1",
      "id": 1
    },
    {
      "Numero": "002",
      "Nom": "Herbizarre",
      "Type1": "Plante",
      "Type2": "Poison",
      "PV": 60,
      "Attaque": 62,
      "Defense": 63,
      "Vitesse": 60,
      "Taille": 1,
      "Poids": 130,
      "Image": "img/002.png",
      "uri": "http://localhost:3000/Pokemon/2",
      "id": 2
    },
    {
      "Numero": "003",
      "Nom": "Florizarre",
      "Type1": "Plante",
      "Type2": "Poison",
      "PV": 80,
      "Attaque": 82,
      "Defense": 83,
      "Vitesse": 80,
      "Taille": 2,
      "Poids": 100,
      "Image": "003.png",
      "id": 3,
      "Generation": 1
    },
    {
      "Numero": "004",
      "Nom": "Salameche",
      "Type1": "Feu",
      "Type2": "",
      "PV": 39,
      "Attaque": 52,
      "Defense": 43,
      "Vitesse": 65,
      "Taille": 0.6,
      "Poids": 8.5,
      "Image": "004.png",
      "id": 4,
      "Generation": 1
    },
    {
      "Numero": "005",
      "Nom": "Reptincel",
      "Type1": "Feu",
      "Type2": "",
      "PV": 58,
      "Attaque": 64,
      "Defense": 58,
      "Vitesse": 80,
      "Taille": 1.1,
      "Poids": 19,
      "Image": "005.png",
      "id": 5,
      "Generation": 1
    },
    {
      "Numero": "006",
      "Nom": "Dracaufeu",
      "Type1": "Feu",
      "Type2": "Vol",
      "PV": 78,
      "Attaque": 84,
      "Defense": 78,
      "Vitesse": 100,
      "Taille": 1.7,
      "Poids": 90.5,
      "Image": "006.png",
      "id": 6,
      "Generation": 1
    },
    {
      "Numero": "007",
      "Nom": "Carapuce",
      "Type1": "Eau",
      "Type2": "",
      "PV": 44,
      "Attaque": 48,
      "Defense": 65,
      "Vitesse": 43,
      "Taille": 0.5,
      "Poids": 9,
      "Image": "007.png",
      "id": 7,
      "Generation": 1
    },
    {
      "Numero": "008",
      "Nom": "Carabaffe",
      "Type1": "Eau",
      "Type2": "",
      "PV": 59,
      "Attaque": 63,
      "Defense": 80,
      "Vitesse": 58,
      "Taille": 1,
      "Poids": 22.5,
      "Image": "008.png",
      "id": 8,
      "Generation": 1
    },
    {
      "Numero": "009",
      "Nom": "Tortank",
      "Type1": "Eau",
      "Type2": "",
      "PV": 79,
      "Attaque": 83,
      "Defense": 100,
      "Vitesse": 78,
      "Taille": 1.6,
      "Poids": 85.5,
      "Image": "009.png",
      "id": 9,
      "Generation": 1
    }
  ]
}